<?xml version="1.0" encoding="UTF-8"?>
<session version="1.0">
<refactoring comment="Rename resource &apos;app_0/src/freertos_hello_world.c&apos; to &apos;main.c&apos;" description="Rename resource &apos;freertos_hello_world.c&apos;" flags="7" id="org.eclipse.ltk.core.refactoring.rename.resource" input="src/freertos_hello_world.c" name="main.c" stamp="1547453335253" updateReferences="true"/>
</session>