Design Route Status
                                               :      # nets :
   ------------------------------------------- : ----------- :
   # of logical nets.......................... :        4277 :
       # of nets not needing routing.......... :        2437 :
           # of internally routed nets........ :        2437 :
       # of routable nets..................... :        1840 :
           # of fully routed nets............. :        1840 :
       # of nets with routing errors.......... :           0 :
   ------------------------------------------- : ----------- :

